{
	"node": "n8n-nodes-base.xero",
	"nodeVersion": "1.0",
	"codexVersion": "1.0",
	"categories": [
		"Finance & Accounting"
	],
	"resources": {
		"credentialDocumentation": [
			{
				"url": "https://docs.n8n.io/credentials/xero"
			}
		],
		"primaryDocumentation": [
			{
				"url": "https://gitlab.com/5stones/n8n-nodes-xero/-/blob/master/README.md"
			}
		]
	}
}
